\relax 
\providecommand\hyper@newdestlabel[2]{}
\providecommand\HyperFirstAtBeginDocument{\AtBeginDocument}
\HyperFirstAtBeginDocument{\ifx\hyper@anchor\@undefined
\global\let\oldnewlabel\newlabel
\gdef\newlabel#1#2{\newlabelxx{#1}#2}
\gdef\newlabelxx#1#2#3#4#5#6{\oldnewlabel{#1}{{#2}{#3}}}
\AtEndDocument{\ifx\hyper@anchor\@undefined
\let\newlabel\oldnewlabel
\fi}
\fi}
\global\let\hyper@last\relax 
\gdef\HyperFirstAtBeginDocument#1{#1}
\providecommand\HyField@AuxAddToFields[1]{}
\providecommand\HyField@AuxAddToCoFields[2]{}
\abx@aux@refcontext{none/global//global/global}
\providecommand \oddpage@label [2]{}
\@writefile{nav}{\headcommand {\slideentry {0}{0}{1}{1/1}{}{0}}}
\@writefile{nav}{\headcommand {\beamer@framepages {1}{1}}}
\abx@aux@cite{0}{Kramel2021}
\abx@aux@segm{0}{0}{Kramel2021}
\@writefile{toc}{\beamer@sectionintoc {1}{Introduction}{2}{0}{1}}
\@writefile{nav}{\headcommand {\beamer@sectionpages {1}{1}}}
\@writefile{nav}{\headcommand {\beamer@subsectionpages {1}{1}}}
\@writefile{nav}{\headcommand {\sectionentry {1}{Introduction}{2}{Introduction}{0}}}
\@writefile{nav}{\headcommand {\slideentry {1}{0}{1}{2/2}{}{0}}}
\@writefile{nav}{\headcommand {\beamer@framepages {2}{2}}}
\pgfsyspdfmark {pgfid1}{8574435}{7028131}
\pgfsyspdfmark {pgfid2}{8549862}{5732246}
\@writefile{nav}{\headcommand {\slideentry {1}{0}{2}{3/3}{}{0}}}
\@writefile{nav}{\headcommand {\beamer@framepages {3}{3}}}
\@writefile{nav}{\headcommand {\slideentry {1}{0}{3}{4/4}{}{0}}}
\@writefile{nav}{\headcommand {\beamer@framepages {4}{4}}}
\@writefile{nav}{\headcommand {\slideentry {1}{0}{4}{5/5}{}{0}}}
\@writefile{nav}{\headcommand {\beamer@framepages {5}{5}}}
\abx@aux@cite{0}{Matsumoto2022}
\abx@aux@segm{0}{0}{Matsumoto2022}
\pgfsyspdfmark {pgfid3}{6262719}{3876886}
\pgfsyspdfmark {pgfid4}{6297592}{2559612}
\@writefile{nav}{\headcommand {\slideentry {1}{0}{5}{6/6}{}{0}}}
\@writefile{nav}{\headcommand {\beamer@framepages {6}{6}}}
\@writefile{nav}{\headcommand {\slideentry {1}{0}{6}{7/7}{}{0}}}
\@writefile{nav}{\headcommand {\beamer@framepages {7}{7}}}
\providecommand*\caption@xref[2]{\@setref\relax\@undefined{#1}}
\newlabel{fig:gray_ammonia}{{1a}{8}{Gray/Brown Ammonia\relax }{Doc-Start}{}}
\@writefile{snm}{\beamer@slide {fig:gray_ammonia}{8}}
\newlabel{sub@fig:gray_ammonia}{{a}{8}{Gray/Brown Ammonia\relax }{Doc-Start}{}}
\@writefile{snm}{\beamer@slide {sub@fig:gray_ammonia}{8}}
\newlabel{fig:blue_ammonia}{{1b}{8}{Blue Ammonia\relax }{Doc-Start}{}}
\@writefile{snm}{\beamer@slide {fig:blue_ammonia}{8}}
\newlabel{sub@fig:blue_ammonia}{{b}{8}{Blue Ammonia\relax }{Doc-Start}{}}
\@writefile{snm}{\beamer@slide {sub@fig:blue_ammonia}{8}}
\newlabel{fig:green_ammonia}{{1c}{8}{Green Ammonia\relax }{Doc-Start}{}}
\@writefile{snm}{\beamer@slide {fig:green_ammonia}{8}}
\newlabel{sub@fig:green_ammonia}{{c}{8}{Green Ammonia\relax }{Doc-Start}{}}
\@writefile{snm}{\beamer@slide {sub@fig:green_ammonia}{8}}
\@writefile{nav}{\headcommand {\slideentry {1}{0}{7}{8/8}{}{0}}}
\@writefile{nav}{\headcommand {\beamer@framepages {8}{8}}}
\@writefile{nav}{\headcommand {\slideentry {1}{0}{8}{9/9}{}{0}}}
\@writefile{nav}{\headcommand {\beamer@framepages {9}{9}}}
\@writefile{nav}{\headcommand {\slideentry {1}{0}{9}{10/10}{}{0}}}
\@writefile{nav}{\headcommand {\beamer@framepages {10}{10}}}
\@writefile{toc}{\beamer@sectionintoc {2}{Procedure}{11}{0}{2}}
\@writefile{nav}{\headcommand {\beamer@sectionpages {2}{10}}}
\@writefile{nav}{\headcommand {\beamer@subsectionpages {2}{10}}}
\@writefile{nav}{\headcommand {\sectionentry {2}{Procedure}{11}{Procedure}{0}}}
\@writefile{nav}{\headcommand {\slideentry {2}{0}{1}{11/11}{}{0}}}
\@writefile{nav}{\headcommand {\beamer@framepages {11}{11}}}
\abx@aux@cite{0}{Duynslaegher2012}
\abx@aux@segm{0}{0}{Duynslaegher2012}
\abx@aux@cite{0}{Stagni2020}
\abx@aux@segm{0}{0}{Stagni2020}
\@writefile{nav}{\headcommand {\slideentry {2}{0}{2}{12/12}{}{0}}}
\@writefile{nav}{\headcommand {\beamer@framepages {12}{12}}}
\@writefile{nav}{\headcommand {\slideentry {2}{0}{3}{13/13}{}{0}}}
\@writefile{nav}{\headcommand {\beamer@framepages {13}{13}}}
\abx@aux@cite{0}{Kim2018}
\abx@aux@segm{0}{0}{Kim2018}
\pgfsyspdfmark {pgfid11}{11001982}{10364707}
\@writefile{nav}{\headcommand {\slideentry {2}{0}{4}{14/14}{}{0}}}
\@writefile{nav}{\headcommand {\beamer@framepages {14}{14}}}
\abx@aux@cite{0}{Matsumoto2022}
\abx@aux@segm{0}{0}{Matsumoto2022}
\pgfsyspdfmark {pgfid13}{8864093}{9230497}
\@writefile{nav}{\headcommand {\slideentry {2}{0}{5}{15/15}{}{0}}}
\@writefile{nav}{\headcommand {\beamer@framepages {15}{15}}}
\@writefile{nav}{\headcommand {\slideentry {2}{0}{6}{16/16}{}{0}}}
\@writefile{nav}{\headcommand {\beamer@framepages {16}{16}}}
\@writefile{nav}{\headcommand {\slideentry {2}{0}{7}{17/17}{}{0}}}
\@writefile{nav}{\headcommand {\beamer@framepages {17}{17}}}
\@writefile{toc}{\beamer@sectionintoc {3}{Results}{18}{0}{3}}
\@writefile{nav}{\headcommand {\beamer@sectionpages {11}{17}}}
\@writefile{nav}{\headcommand {\beamer@subsectionpages {11}{17}}}
\@writefile{nav}{\headcommand {\sectionentry {3}{Results}{18}{Results}{0}}}
\@writefile{nav}{\headcommand {\slideentry {3}{0}{1}{18/18}{}{0}}}
\@writefile{nav}{\headcommand {\beamer@framepages {18}{18}}}
\@writefile{nav}{\headcommand {\slideentry {3}{0}{2}{19/19}{}{0}}}
\@writefile{nav}{\headcommand {\beamer@framepages {19}{19}}}
\abx@aux@cite{0}{Sinnot2020}
\abx@aux@segm{0}{0}{Sinnot2020}
\@writefile{nav}{\headcommand {\slideentry {3}{0}{3}{20/20}{}{0}}}
\@writefile{nav}{\headcommand {\beamer@framepages {20}{20}}}
\@writefile{nav}{\headcommand {\slideentry {3}{0}{4}{21/21}{}{0}}}
\@writefile{nav}{\headcommand {\beamer@framepages {21}{21}}}
\abx@aux@cite{0}{ammonia_price}
\abx@aux@segm{0}{0}{ammonia_price}
\@writefile{nav}{\headcommand {\slideentry {3}{0}{5}{22/22}{}{0}}}
\@writefile{nav}{\headcommand {\beamer@framepages {22}{22}}}
\@writefile{nav}{\headcommand {\slideentry {3}{0}{6}{23/23}{}{0}}}
\@writefile{nav}{\headcommand {\beamer@framepages {23}{23}}}
\abx@aux@cite{0}{Negri2022}
\abx@aux@segm{0}{0}{Negri2022}
\abx@aux@cite{0}{DAngelo2021}
\abx@aux@segm{0}{0}{DAngelo2021}
\abx@aux@cite{0}{Lammel1995}
\abx@aux@segm{0}{0}{Lammel1995}
\@writefile{nav}{\headcommand {\slideentry {3}{0}{7}{24/24}{}{0}}}
\@writefile{nav}{\headcommand {\beamer@framepages {24}{24}}}
\@writefile{nav}{\headcommand {\slideentry {3}{0}{8}{25/25}{}{0}}}
\@writefile{nav}{\headcommand {\beamer@framepages {25}{25}}}
\@writefile{nav}{\headcommand {\slideentry {3}{0}{9}{26/26}{}{0}}}
\@writefile{nav}{\headcommand {\beamer@framepages {26}{26}}}
\@writefile{nav}{\headcommand {\slideentry {3}{0}{10}{27/27}{}{0}}}
\@writefile{nav}{\headcommand {\beamer@framepages {27}{27}}}
\@writefile{nav}{\headcommand {\slideentry {3}{0}{11}{28/28}{}{0}}}
\@writefile{nav}{\headcommand {\beamer@framepages {28}{28}}}
\@writefile{nav}{\headcommand {\slideentry {3}{0}{12}{29/29}{}{0}}}
\@writefile{nav}{\headcommand {\beamer@framepages {29}{29}}}
\@writefile{nav}{\headcommand {\slideentry {3}{0}{13}{30/30}{}{0}}}
\@writefile{nav}{\headcommand {\beamer@framepages {30}{30}}}
\@writefile{nav}{\headcommand {\beamer@partpages {1}{30}}}
\@writefile{nav}{\headcommand {\beamer@subsectionpages {18}{30}}}
\@writefile{nav}{\headcommand {\beamer@sectionpages {18}{30}}}
\@writefile{nav}{\headcommand {\beamer@documentpages {30}}}
\@writefile{nav}{\headcommand {\gdef \inserttotalframenumber {30}}}
\abx@aux@read@bbl@mdfivesum{E50C79DEB94F572DF28A8C3E3B85AE57}
\gdef \@abspage@last{30}
