\relax 
\providecommand\zref@newlabel[2]{}
\providecommand\hyper@newdestlabel[2]{}
\providecommand\HyperFirstAtBeginDocument{\AtBeginDocument}
\HyperFirstAtBeginDocument{\ifx\hyper@anchor\@undefined
\global\let\oldnewlabel\newlabel
\gdef\newlabel#1#2{\newlabelxx{#1}#2}
\gdef\newlabelxx#1#2#3#4#5#6{\oldnewlabel{#1}{{#2}{#3}}}
\AtEndDocument{\ifx\hyper@anchor\@undefined
\let\newlabel\oldnewlabel
\fi}
\fi}
\global\let\hyper@last\relax 
\gdef\HyperFirstAtBeginDocument#1{#1}
\providecommand\HyField@AuxAddToFields[1]{}
\providecommand\HyField@AuxAddToCoFields[2]{}
\citation{achemso-control}
\bibstyle{achemso}
\providecommand{\mciteSetMaxWidth}[3]{\relax}
\providecommand{\mciteSetMaxCount}[3]{\relax}
\citation{Kramel2021}
\citation{Kramel2021}
\citation{Kramel2021}
\citation{Brinks2020}
\citation{Brinks2020}
\citation{Brinks2020}
\citation{Komar2007}
\citation{Komar2007}
\citation{Kuternowski2020}
\citation{Kuternowski2020}
\citation{Komar2007}
\citation{Han2019}
\citation{Han2019}
\citation{marineinsight}
\citation{marineinsight}
\citation{exhaustgastreatement}
\citation{exhaustgastreatement}
\@writefile{toc}{\contentsline {section}{\numberline {1}Introduction}{3}{section.1}\protected@file@percent }
\@writefile{toc}{\contentsline {subsection}{\numberline {1.1}Importance of Ammonia as Carbon-free Fuel}{3}{subsection.1.1}\protected@file@percent }
\@writefile{toc}{\contentsline {subsection}{\numberline {1.2}Aim of this Study}{3}{subsection.1.2}\protected@file@percent }
\@writefile{toc}{\contentsline {subsection}{\numberline {1.3}State of the Art}{3}{subsection.1.3}\protected@file@percent }
\newlabel{sec:state-of-the-art}{{1.3}{3}{State of the Art}{subsection.1.3}{}}
\pgfsyspdfmark {pgfid1}{11941710}{17384987}
\pgfsyspdfmark {pgfid2}{11433398}{14624283}
\citation{Brinks2020}
\citation{Brinks2020}
\citation{Brinks2020}
\citation{Brinks2022}
\citation{Brinks2022}
\citation{Brinks2022}
\citation{ammonia_price}
\citation{ammonia_price}
\citation{investopedia}
\citation{investopedia}
\citation{ammonia_price}
\citation{investopedia}
\@writefile{toc}{\contentsline {subsection}{\numberline {1.4}Ammonia Production Pathways}{4}{subsection.1.4}\protected@file@percent }
\providecommand*\caption@xref[2]{\@setref\relax\@undefined{#1}}
\newlabel{fig:gray_ammonia}{{1a}{4}{Gray/Brown Ammonia\relax }{figure.caption.2}{}}
\newlabel{sub@fig:gray_ammonia}{{a}{4}{Gray/Brown Ammonia\relax }{figure.caption.2}{}}
\newlabel{fig:blue_ammonia}{{1b}{4}{Blue Ammonia\relax }{figure.caption.2}{}}
\newlabel{sub@fig:blue_ammonia}{{b}{4}{Blue Ammonia\relax }{figure.caption.2}{}}
\newlabel{fig:green_ammonia}{{1c}{4}{Green Ammonia\relax }{figure.caption.2}{}}
\newlabel{sub@fig:green_ammonia}{{c}{4}{Green Ammonia\relax }{figure.caption.2}{}}
\@writefile{lof}{\contentsline {figure}{\numberline {1}{\ignorespaces Different production processes for ammonia. Here, gray ammonia is the conventional process of using fossil methane for hydrogen production. Blue ammonia uses the same process, but reduces carbon emissions with carbon capture, utilization and storage. Green ammonia uses hydrogen from water electrolysis, which in turn uses renewable electricity. The different production pathways lead to different environmental impacts and also different fuel prices.\mciteCiteA  {\@auxout }{main}{\relax }{\relax }{\cite }{Brinks2020}\relax }}{4}{figure.caption.2}\protected@file@percent }
\citation{Lammel1995}
\citation{Lammel1995}
\citation{Lammel1995}
\citation{Matsumoto2022}
\citation{Matsumoto2022}
\citation{Matsumoto2022}
\citation{Yapicioglu2019}
\citation{Yapicioglu2019}
\citation{Eberle2012}
\citation{Eberle2012}
\citation{Imhoff2021}
\citation{Imhoff2021}
\@writefile{lof}{\contentsline {figure}{\numberline {2}{\ignorespaces Ammonia price for different geogrpahical locations and production processes for June 2023\mciteCiteA  {\@auxout }{main}{\relax }{\relax }{\cite }{ammonia_price}. It is visible that green ammonia is by far the most expensive, while CCUS only causes a fraction of the overall price. FOB (\textit  {Free on Board}) means that the shipping price is not included, CFR (\textit  {Cost and Freight}) means that the shipping price is included.\mciteCiteA  {\@auxout }{main}{\relax }{\relax }{\cite }{investopedia}\relax }}{5}{figure.caption.3}\protected@file@percent }
\newlabel{fig:ammonia_prices}{{2}{5}{Ammonia price for different geogrpahical locations and production processes for June 2023\cite {ammonia_price}. It is visible that green ammonia is by far the most expensive, while CCUS only causes a fraction of the overall price. FOB (\textit {Free on Board}) means that the shipping price is not included, CFR (\textit {Cost and Freight}) means that the shipping price is included.\cite {investopedia}\relax }{figure.caption.3}{}}
\@writefile{toc}{\contentsline {subsection}{\numberline {1.5}NOx-to-Ammonia Process (NTA)}{5}{subsection.1.5}\protected@file@percent }
\newlabel{sec:intro_nta}{{1.5}{5}{NOx-to-Ammonia Process (NTA)}{subsection.1.5}{}}
\pgfsyspdfmark {pgfid6}{13253530}{7971932}
\pgfsyspdfmark {pgfid7}{11329915}{5211228}
\citation{Sanchez2021}
\citation{Sanchez2021}
\citation{GudrunMaersk}
\citation{GudrunMaersk}
\citation{Babicz2015}
\citation{Babicz2015}
\citation{Babicz2015}
\citation{engine}
\citation{engine}
\citation{Brynolf2014}
\citation{Brynolf2014}
\citation{ValeraMedina2019}
\citation{ValeraMedina2019}
\citation{Erdemir2020}
\citation{Erdemir2020}
\pgfsyspdfmark {pgfid8}{15436299}{34961935}
\newlabel{eq:rev-haber-bosch}{{5}{6}{NOx-to-Ammonia Process (NTA)}{equation.1.5}{}}
\@writefile{toc}{\contentsline {subsection}{\numberline {1.6}Case Study}{6}{subsection.1.6}\protected@file@percent }
\newlabel{sec:specification}{{1.6}{6}{Case Study}{subsection.1.6}{}}
\@writefile{toc}{\contentsline {subsection}{\numberline {1.7}Scenarios}{6}{subsection.1.7}\protected@file@percent }
\@writefile{lot}{\contentsline {table}{\numberline {1}{\ignorespaces Different scenarios for comparison to the NTA process.\relax }}{6}{table.caption.4}\protected@file@percent }
\newlabel{tab:scenarios}{{1}{6}{Different scenarios for comparison to the NTA process.\relax }{table.caption.4}{}}
\citation{Imhoff2021}
\citation{Kim2018}
\citation{Kim2018}
\@writefile{lof}{\contentsline {figure}{\numberline {3}{\ignorespaces High-Level Setup of the process. The cracker produces \ce {N2} and \ce {H2}, which is used to convert nitric oxide back to ammonia inside the NTA reactor.\relax }}{7}{figure.caption.5}\protected@file@percent }
\newlabel{fig:rough_setup}{{3}{7}{High-Level Setup of the process. The cracker produces \ce {N2} and \ce {H2}, which is used to convert nitric oxide back to ammonia inside the NTA reactor.\relax }{figure.caption.5}{}}
\@writefile{toc}{\contentsline {subsection}{\numberline {1.8}Rough Setup}{7}{subsection.1.8}\protected@file@percent }
\@writefile{toc}{\contentsline {section}{\numberline {2}Procedure}{7}{section.2}\protected@file@percent }
\@writefile{toc}{\contentsline {subsection}{\numberline {2.1}Cracker}{7}{subsection.2.1}\protected@file@percent }
\citation{Yapicioglu2019}
\citation{Duynslaegher2012}
\citation{Duynslaegher2012}
\@writefile{lof}{\contentsline {figure}{\numberline {4}{\ignorespaces Flowsheet of the process. It is composed of four sections: cracker for \ce {H2} production, engine, NTA for ammonia regeneration and recycle. Even though it is shown here, the \ce {H2} stream from cracker to engine is set to zero after some experimentation.\relax }}{8}{figure.caption.6}\protected@file@percent }
\newlabel{fig:flowsheet}{{4}{8}{Flowsheet of the process. It is composed of four sections: cracker for \ce {H2} production, engine, NTA for ammonia regeneration and recycle. Even though it is shown here, the \ce {H2} stream from cracker to engine is set to zero after some experimentation.\relax }{figure.caption.6}{}}
\@writefile{toc}{\contentsline {subsection}{\numberline {2.2}Engine}{8}{subsection.2.2}\protected@file@percent }
\citation{Stagni2020}
\citation{Stagni2020}
\citation{Matsumoto2022}
\@writefile{toc}{\contentsline {subsubsection}{\numberline {2.2.1}Kinetic Model for Combustion}{9}{subsubsection.2.2.1}\protected@file@percent }
\newlabel{sec:kinetic_model}{{2.2.1}{9}{Kinetic Model for Combustion}{subsubsection.2.2.1}{}}
\@writefile{lof}{\contentsline {figure}{\numberline {5}{\ignorespaces Molar fraction of some ammonia combustion reactants and products over time. It is visible that the concentrations of ammonia and oxygen decrease, while hydrogen is generated. Also, the hydrogen concentration is rising quickly, while oxygen is used up at a slow rate, which is unrealistic, and the NH concentration is unstoichiometric to the \ce {NH3} concentration.\relax }}{9}{figure.caption.7}\protected@file@percent }
\newlabel{fig:kinetic_model}{{5}{9}{Molar fraction of some ammonia combustion reactants and products over time. It is visible that the concentrations of ammonia and oxygen decrease, while hydrogen is generated. Also, the hydrogen concentration is rising quickly, while oxygen is used up at a slow rate, which is unrealistic, and the NH concentration is unstoichiometric to the \ce {NH3} concentration.\relax }{figure.caption.7}{}}
\@writefile{toc}{\contentsline {subsection}{\numberline {2.3}NTA}{9}{subsection.2.3}\protected@file@percent }
\citation{TillnerRoth1998}
\citation{TillnerRoth1998}
\pgfsyspdfmark {pgfid11}{13253530}{44661263}
\@writefile{toc}{\contentsline {subsection}{\numberline {2.4}Recycle}{10}{subsection.2.4}\protected@file@percent }
\@writefile{lof}{\contentsline {figure}{\numberline {6}{\ignorespaces Optimal temperatures for both flash columns for the objective function $x_\text  {Amm}\dot  {n}_\text  {Amm}$, which takes both ammonia recovery and low water content in the recycle stream into account. The optimum lies at $T_1 = \SI {44.5}{\celsius }$ and $T_2 = \SI {10}{\celsius }$\relax }}{10}{figure.caption.8}\protected@file@percent }
\newlabel{fig:flash}{{6}{10}{Optimal temperatures for both flash columns for the objective function $x_\text {Amm}\dot {n}_\text {Amm}$, which takes both ammonia recovery and low water content in the recycle stream into account. The optimum lies at $T_1 = \SI {44.5}{\celsius }$ and $T_2 = \SI {10}{\celsius }$\relax }{figure.caption.8}{}}
\citation{Sinnot2020}
\citation{Sinnot2020}
\citation{Note-1}
\citation{Note-1}
\citation{CEPCI}
\citation{CEPCI}
\citation{CEPCI}
\citation{Sinnot2020}
\citation{Note-2}
\citation{Note-2}
\citation{Sinnot2020}
\citation{Note-3}
\citation{Note-3}
\citation{Sinnot2020}
\citation{engine_specs}
\citation{engine_specs}
\citation{engine_power}
\citation{engine_power}
\@writefile{toc}{\contentsline {subsection}{\numberline {2.5}Energy Integration}{11}{subsection.2.5}\protected@file@percent }
\@writefile{toc}{\contentsline {subsection}{\numberline {2.6}Economic Assessement}{11}{subsection.2.6}\protected@file@percent }
\@writefile{toc}{\contentsline {subsubsection}{\numberline {2.6.1}CAPEX}{11}{subsubsection.2.6.1}\protected@file@percent }
\@writefile{toc}{\contentsline {subsubsection}{\numberline {2.6.2}OPEX}{11}{subsubsection.2.6.2}\protected@file@percent }
\@writefile{toc}{\contentsline {subsection}{\numberline {2.7}Life Cycle Assessement}{11}{subsection.2.7}\protected@file@percent }
\citation{Negri2022}
\citation{Negri2022}
\citation{DAngelo2021}
\citation{DAngelo2021}
\citation{Lammel1995}
\@writefile{toc}{\contentsline {section}{\numberline {3}Results \& Discussion}{12}{section.3}\protected@file@percent }
\@writefile{lot}{\contentsline {table}{\numberline {2}{\ignorespaces Fuel usage for different scenarios. SCR is the already used selective catalytic reduction process.\relax }}{12}{table.caption.9}\protected@file@percent }
\newlabel{tab:ammonia_usage}{{2}{12}{Fuel usage for different scenarios. SCR is the already used selective catalytic reduction process.\relax }{table.caption.9}{}}
\citation{Metcalf2014}
\citation{Metcalf2014}
\citation{Note-4}
\citation{Note-4}
\@writefile{toc}{\contentsline {subsection}{\numberline {3.1}Heat Exchanger Network}{13}{subsection.3.1}\protected@file@percent }
\newlabel{sec:HEN}{{3.1}{13}{Heat Exchanger Network}{subsection.3.1}{}}
\@writefile{lof}{\contentsline {figure}{\numberline {7}{\ignorespaces Heat Exchanger Network (HEN). For the four different streams that need temperature change, \textsc  {Aspen Energy Analyzer V11} proposes a design of seven heat exchangers. Cold streams are represented with \sampleline  {thick, blue, latex-}, hot streams with \sampleline  {thick, red, -latex}. Colored numbers are temperatures at specific points in the HEN, black numbers describe surface areas of the heat exchanger next to them.\relax }}{13}{figure.caption.10}\protected@file@percent }
\newlabel{fig:HEN}{{7}{13}{Heat Exchanger Network (HEN). For the four different streams that need temperature change, \textsc {Aspen Energy Analyzer V11} proposes a design of seven heat exchangers. Cold streams are represented with \sampleline {thick, blue, latex-}, hot streams with \sampleline {thick, red, -latex}. Colored numbers are temperatures at specific points in the HEN, black numbers describe surface areas of the heat exchanger next to them.\relax }{figure.caption.10}{}}
\@writefile{toc}{\contentsline {subsection}{\numberline {3.2}Economic Assessement}{13}{subsection.3.2}\protected@file@percent }
\citation{diesel_prices}
\citation{diesel_prices}
\citation{diesel_prices}
\@writefile{lot}{\contentsline {table}{\numberline {3}{\ignorespaces Capital expenditure, split into different types of equipment. The annual cost is calculated with an ammortization period of \SI {15}{years} and an inflation rate of \num {0.1}.\relax }}{14}{table.caption.11}\protected@file@percent }
\newlabel{tab:capex}{{3}{14}{Capital expenditure, split into different types of equipment. The annual cost is calculated with an ammortization period of \SI {15}{years} and an inflation rate of \num {0.1}.\relax }{table.caption.11}{}}
\@writefile{lof}{\contentsline {figure}{\numberline {8}{\ignorespaces Composition of the total CAPEX. The main expenditures are the heat exchangers and the reactors.\relax }}{14}{figure.caption.12}\protected@file@percent }
\newlabel{fig:capex}{{8}{14}{Composition of the total CAPEX. The main expenditures are the heat exchangers and the reactors.\relax }{figure.caption.12}{}}
\@writefile{lot}{\contentsline {table}{\numberline {4}{\ignorespaces Comparison of fuel prices, as visible in fig. \ref {fig:opex}. The cost is calculated in US Dollars per ton cargo and per \si {\kilo \meter } traveled, both for the NTA and the base case.\relax }}{15}{table.caption.13}\protected@file@percent }
\newlabel{tab:opex}{{4}{15}{Comparison of fuel prices, as visible in fig. \ref {fig:opex}. The cost is calculated in US Dollars per ton cargo and per \si {\kilo \meter } traveled, both for the NTA and the base case.\relax }{table.caption.13}{}}
\@writefile{lof}{\contentsline {figure}{\numberline {9}{\ignorespaces Diesel prices for each country worldwide\mciteCiteA  {\@auxout }{main}{\relax }{\relax }{\cite }{diesel_prices}. Some important countries for global shipping are marked, showing that taking the global average for further calculations is a reasonable assumption.\relax }}{15}{figure.caption.14}\protected@file@percent }
\newlabel{fig:diesel_prices}{{9}{15}{Diesel prices for each country worldwide\cite {diesel_prices}. Some important countries for global shipping are marked, showing that taking the global average for further calculations is a reasonable assumption.\relax }{figure.caption.14}{}}
\citation{Brinks2020}
\@writefile{lof}{\contentsline {figure}{\numberline {10}{\ignorespaces Capital and operating expenditure for diesel, gray, blue and green ammonia. The left bar refers to the scenario with an NTA process, the right bar is the base case. It is visible that gray and blue ammonia costs are much more comparable to the BAU case, while green ammonia results in much larger costs. Also, CAPEX is overall about 20 times lower than OPEX for both ammonia scenarios.\relax }}{16}{figure.caption.15}\protected@file@percent }
\newlabel{fig:opex}{{10}{16}{Capital and operating expenditure for diesel, gray, blue and green ammonia. The left bar refers to the scenario with an NTA process, the right bar is the base case. It is visible that gray and blue ammonia costs are much more comparable to the BAU case, while green ammonia results in much larger costs. Also, CAPEX is overall about 20 times lower than OPEX for both ammonia scenarios.\relax }{figure.caption.15}{}}
\@writefile{toc}{\contentsline {subsection}{\numberline {3.3}Life Cycle Assessment}{16}{subsection.3.3}\protected@file@percent }
\citation{Negri2022}
\citation{Negri2022}
\citation{Matsumoto2022}
\@writefile{lof}{\contentsline {figure}{\numberline {11}{\ignorespaces Life cycle assessement. The left bar refers to the scenario with an NTA process, the right bar is the base case (BC). \enquote {Freight Ship} and \enquote {Port} refer to the construction and maintenance of the ship and the port, respecitvely.\mciteCiteA  {\@auxout }{main}{\relax }{\relax }{\cite }{Negri2022}\relax }}{17}{figure.caption.16}\protected@file@percent }
\newlabel{fig:lca}{{11}{17}{Life cycle assessement. The left bar refers to the scenario with an NTA process, the right bar is the base case (BC). \enquote {Freight Ship} and \enquote {Port} refer to the construction and maintenance of the ship and the port, respecitvely.\cite {Negri2022}\relax }{figure.caption.16}{}}
\@writefile{toc}{\contentsline {section}{\numberline {4}Conclusion}{17}{section.4}\protected@file@percent }
\citation{Brinks2020}
\citation{Brinks2020}
\citation{Chakrabortty2008}
\citation{Chakrabortty2008}
\citation{Zarocostas2008}
\citation{Zarocostas2008}
\citation{Wolfram2022}
\citation{Wolfram2022}
\@writefile{toc}{\contentsline {subsection}{\numberline {4.1}Dangers of Ammonia as a Maritine Fuel}{18}{subsection.4.1}\protected@file@percent }
\bibdata{acs-report,literature}
\bibcite{Kramel2021}{{1}{2021}{{Kramel et~al.}}{{Kramel, Muri, Kim, Lonka, Nielsen, Ringvold, Bouman, Steen, and Str{\o }mman}}}
\bibcite{Brinks2020}{{2}{2020}{{Brinks and Hektor}}{{Brinks, and Hektor}}}
\bibcite{Komar2007}{{3}{2007}{{Komar et~al.}}{{Komar, Antoni{\ae }, and Mati{\ae }}}}
\bibcite{Kuternowski2020}{{4}{2020}{{Kuternowski et~al.}}{{Kuternowski, Staszak, and Staszak}}}
\bibcite{Han2019}{{5}{2019}{{Han et~al.}}{{Han, Cai, Gao, ya~Hasegawa, Wang, Zhang, Shi, and Zhang}}}
\bibcite{marineinsight}{{6}{}{{marineinsight}}{{}}}
\bibcite{exhaustgastreatement}{{7}{2012}{{Register}}{{}}}
\bibcite{Brinks2022}{{8}{2022}{{Brinks and Chryssakis}}{{Brinks, and Chryssakis}}}
\bibcite{ammonia_price}{{9}{2023}{{spglobal}}{{}}}
\bibcite{investopedia}{{10}{}{{Investopedia}}{{}}}
\bibcite{Lammel1995}{{11}{1995}{{Lammel and Graßl}}{{Lammel, and Graßl}}}
\bibcite{Matsumoto2022}{{12}{2022}{{Matsumoto et~al.}}{{Matsumoto, Kurahashi, Tachikawa, and Iseki}}}
\bibcite{Yapicioglu2019}{{13}{2019}{{Yapicioglu and Dincer}}{{Yapicioglu, and Dincer}}}
\bibcite{Eberle2012}{{14}{2012}{{Eberle et~al.}}{{Eberle, M\"{u}ller, and von Helmolt}}}
\bibcite{Imhoff2021}{{15}{2021}{{Imhoff et~al.}}{{Imhoff, Gkantonas, and Mastorakos}}}
\bibcite{Sanchez2021}{{16}{2021}{{Sánchez et~al.}}{{Sánchez, Castellano, Martín, and Vega}}}
\bibcite{GudrunMaersk}{{17}{}{{Gud}}{{}}}
\bibcite{Babicz2015}{{18}{2015}{{Babicz}}{{}}}
\bibcite{engine}{{19}{}{{Wärtsilä Corporation}}{{}}}
\bibcite{Brynolf2014}{{20}{2014}{{Brynolf et~al.}}{{Brynolf, Fridell, and Andersson}}}
\bibcite{ValeraMedina2019}{{21}{2019}{{Valera-Medina et~al.}}{{Valera-Medina, Gutesa, Xiao, Pugh, Giles, Goktepe, Marsh, and Bowen}}}
\bibcite{Erdemir2020}{{22}{2020}{{Erdemir and Dincer}}{{Erdemir, and Dincer}}}
\bibcite{Kim2018}{{23}{2018}{{Kim et~al.}}{{Kim, Song, and Lim}}}
\bibcite{Duynslaegher2012}{{24}{2012}{{Duynslaegher et~al.}}{{Duynslaegher, Contino, Vandooren, and Jeanmart}}}
\bibcite{Stagni2020}{{25}{2020}{{Stagni et~al.}}{{Stagni, Cavallotti, Arunthanayothin, Song, Herbinet, Battin-Leclerc, and Faravelli}}}
\bibcite{TillnerRoth1998}{{26}{1998}{{Tillner-Roth and Friend}}{{Tillner-Roth, and Friend}}}
\bibcite{Sinnot2020}{{27}{2020}{{Sinnot and Towler}}{{Sinnot, and Towler}}}
\bibcite{Note-1}{{28}{}{{Not}}{{}}}
\citation{Sinnot2020}
\bibcite{CEPCI}{{29}{}{{Maxwell}}{{}}}
\bibcite{Note-2}{{30}{}{{Not}}{{}}}
\citation{Sinnot2020}
\bibcite{Note-3}{{31}{}{{Not}}{{}}}
\citation{Sinnot2020}
\bibcite{engine_specs}{{32}{}{{Sulzer}}{{}}}
\bibcite{engine_power}{{33}{}{{Atlas}}{{}}}
\bibcite{Negri2022}{{34}{2022}{{Negri et~al.}}{{Negri, Charalambous, Medrano-Garc{\'{\i }}a, and Guill{\'{e}}n-Gos{\'{a}}lbez}}}
\bibcite{DAngelo2021}{{35}{2021}{{D'Angelo et~al.}}{{D'Angelo, Cobo, Tulus, Nabera, Mart{\'{\i }}n, P{\'{e}}rez-Ram{\'{\i }}rez, and Guill{\'{e}}n-Gos{\'{a}}lbez}}}
\bibcite{Metcalf2014}{{36}{2014}{{{Metcalf \& Eddy Inc.} et~al.}}{{{Metcalf \& Eddy Inc.}, Tchobanoglous, Burton, Tsuchihashi, and Stensel}}}
\bibcite{Note-4}{{37}{}{{Not}}{{}}}
\citation{Metcalf2014}
\bibcite{diesel_prices}{{38}{}{{GlobalPetrolPrices.com}}{{}}}
\bibcite{Chakrabortty2008}{{39}{2008}{{Chakrabortty}}{{}}}
\bibcite{Zarocostas2008}{{40}{2008}{{Zarocostas}}{{}}}
\bibcite{Wolfram2022}{{41}{2022}{{Wolfram et~al.}}{{Wolfram, Kyle, Zhang, Gkantonas, and Smith}}}
\mciteSetMaxCount{main}{bibitem}{41}
\mciteSetMaxCount{main}{subitem}{1}
\mciteSetMaxWidth{main}{bibitem}{717618}
\mciteSetMaxWidth{main}{subitem}{0}
\@writefile{toc}{\contentsline {section}{\numberline {A}Appendix}{22}{appendix.A}\protected@file@percent }
\@writefile{toc}{\contentsline {subsection}{\numberline {A.1}Code}{22}{subsection.A.1}\protected@file@percent }
\newlabel{sec:code}{{A.1}{22}{Code}{subsection.A.1}{}}
\newlabel{lst:generateStochiometry}{{1}{22}{python script for the generation of a stochiometric lookup table, once for reactants and once for products}{lstlisting.1}{}}
\@writefile{lol}{\contentsline {lstlisting}{\numberline {1}{\ignorespaces python script for the generation of a stochiometric lookup table, once for reactants and once for products}}{22}{lstlisting.1}\protected@file@percent }
\newlabel{lst:combustion}{{2}{23}{python script for the integration of rate equations, used for fig. \ref {fig:kinetic_model}}{lstlisting.2}{}}
\@writefile{lol}{\contentsline {lstlisting}{\numberline {2}{\ignorespaces python script for the integration of rate equations, used for fig. \ref {fig:kinetic_model}}}{23}{lstlisting.2}\protected@file@percent }
\newlabel{lst:capex_opex}{{3}{26}{python script for CAPEX and OPEX calculations}{lstlisting.3}{}}
\@writefile{lol}{\contentsline {lstlisting}{\numberline {3}{\ignorespaces python script for CAPEX and OPEX calculations}}{26}{lstlisting.3}\protected@file@percent }
\gdef \@abspage@last{39}
